Principle Component Analysis and Classifiers – Pooja Rajendran Raju
…
Extract the best hyperparameters based on accuracy

Code

# Review tuning metrics
collect_metrics(rf_tune_results) %>%
  filter(.metric == "accuracy") %>%
  arrange(desc(mean))

# A tibble: 25 × 8
    mtry min_n .metric  .estimator  mean     n std_err .config              
   <int> <int> <chr>    <chr>      <dbl> <int>   <dbl> <chr>                
 1     2    11 accuracy binary     0.909     5 0.00828 Preprocessor1_Model07
 2     3    11 accuracy binary     0.908     5 0.00641 Preprocessor1_Model08
 3     3    30 accuracy binary     0.908     5 0.00651 Preprocessor1_Model18
 4     3    21 accuracy binary     0.906     5 0.00620 Preprocessor1_Model13
 5     3    40 accuracy binary     0.904     5 0.00583 Preprocessor1_Model23
 6     4    21 accuracy binary     0.903     5 0.00515 Preprocessor1_Model14
 7     4    11 accuracy binary     0.903     5 0.00711 Preprocessor1_Model09
 8     2     2 accuracy binary     0.903     5 0.00671 Preprocessor1_Model02
 9     5    21 accuracy binary     0.901     5 0.00738 Preprocessor1_Model15
10     4    40 accuracy binary     0.901     5 0.00622 Preprocessor1_Model24
# ℹ 15 more rows
…
Code

# Review results and select best
boost_tune_results %>%
  collect_metrics() %>%
  filter(.metric == "accuracy") %>%
  arrange(desc(mean))

# A tibble: 25 × 8
   tree_depth learn_rate .metric  .estimator  mean     n std_err .config        
        <int>      <dbl> <chr>    <chr>      <dbl> <int>   <dbl> <chr>          
 1         10       1.41 accuracy binary     0.903     5 0.0125  Preprocessor1_…
 2          3       1.19 accuracy binary     0.903     5 0.00723 Preprocessor1_…
 3         10       1.00 accuracy binary     0.901     5 0.00463 Preprocessor1_…
 4          7       1.41 accuracy binary     0.901     5 0.00762 Preprocessor1_…
 5          5       1.19 accuracy binary     0.900     5 0.0129  Preprocessor1_…
 6          3       1.00 accuracy binary     0.898     5 0.00793 Preprocessor1_…
 7          7       1.68 accuracy binary     0.897     5 0.0105  Preprocessor1_…
 8          5       1.41 accuracy binary     0.897     5 0.00577 Preprocessor1_…
 9          7       1.00 accuracy binary     0.897     5 0.00794 Preprocessor1_…
10          7       1.19 accuracy binary     0.897     5 0.00632 Preprocessor1_…
# ℹ 15 more rows
…
